{
	"iron_shovel": "256",
	"iron_sword": "267",
	"wooden_sword": "268",
	"wooden_shovel": "269",
	"wooden_pickaxe": "270",
	"wooden_axe": "271",
	"stone_sword": "272",
	"stone_shovel": "273",
	"stone_pickaxe": "274",
	"stone_axe": "275",
	"diamond_sword": "276",
	"diamond_shovel": "277",
	"diamond_pickaxe": "278",
	"diamond_axe": "279",
	"stick": "280",
	"bowl": "281",
	"mushroom_stew": "282",
	"golden_sword": "283",
	"golden_shovel": "284",
	"golden_pickaxe": "285",
	"golden_axe": "286",
	"string": "287",
	"feather": "288",
	"gunpowder": "289",
	"wooden_hoe": "290",
	"stone_hoe": "291",
	"iron_hoe": "292",
	"diamond_hoe": "293",
	"golden_hoe": "294",
	"wheat_seeds": "295",
	"wheat": "296",
	"bread": "297",
	"leather_helmet": "298",
	"leather_chestplate": "299",
	"leather_leggings": "300",
	"leather_boots": "301",
	"chainmail_helmet": "302",
	"chainmail_chestplate": "303",
	"chainmail_leggings": "304",
	"chainmail_boots": "305",
	"iron_helmet": "306",
	"iron_chestplate": "307",
	"iron_leggings": "308",
	"iron_boots": "309",
	"diamond_helmet": "310",
	"diamond_chestplate": "311",
	"diamond_leggings": "312",
	"diamond_boots": "313",
	"golden_helmet": "314",
	"golden_chestplate": "315",
	"golden_leggings": "316",
	"golden_boots": "317",
	"flint": "318",
	"porkchop": "319",
	"cooked_porkchop": "320",
	"painting": "321",
	"oak_sign": "323",
	"bucket": "325",
	"minecart": "328",
	"saddle": "329",
	"redstone": "331",
	"snowball": "332",
	"oak_boat": "333",
	"leather": "334",
	"kelp": "-138",
	"brick": "336",
	"clay_ball": "337",
	"sugar_cane": "338",
	"paper": "339",
	"book": "340",
	"slime_ball": "341",
	"chest_minecart": "342",
	"egg": "344",
	"compass": "345",
	"fishing_rod": "346",
	"clock": "347",
	"glowstone_dust": "348",
	"bone": "352",
	"sugar": "353",
	"cake": "354",
	"repeater": "356",
	"cookie": "357",
	"map": "358",
	"shears": "359",
	"melon": "360",
	"pumpkin_seeds": "361",
	"melon_seeds": "362",
	"beef": "363",
	"cooked_beef": "364",
	"chicken": "365",
	"cooked_chicken": "366",
	"rotten_flesh": "367",
	"ender_pearl": "368",
	"blaze_rod": "369",
	"ghast_tear": "370",
	"gold_nugget": "371",
	"nether_wart": "372",
	"potion": "373",
	"glass_bottle": "374",
	"spider_eye": "375",
	"fermented_spider_eye": "376",
	"blaze_powder": "377",
	"magma_cream": "378",
	"brewing_stand": "379",
	"cauldron": "380",
	"ender_eye": "381",
	"speckled_melon": "382",
	"spawn_egg": "383",
	"experience_bottle": "384",
	"writable_book": "386",
	"written_book": "387",
	"emerald": "388",
	"item_frame": "389",
	"carrot": "391",
	"potato": "392",
	"baked_potato": "393",
	"poisonous_potato": "394",
	"rabbit_stew": "413",
	"rabbit_hide": "415",
	"horsearmorleather": "416",
	"horsearmoriron": "417",
	"horsearmordiamond": "419",
	"name_tag": "421",
	"prismarine_crystals": "422",
	"mutton": "423",
	"rapid_fertilizer": "449",
	"totem": "450",
	"iron_nugget": "452",
	"trident": "455",
	"beetroot": "457",
	"beetroot_seeds": "458",
	"beetroot_soup": "459",
	"salmon": "349:1",
	"clownfish": "349:2",
	"cooked_salmon": "350:1",
	"dried_kelp": "464",
	"nautilus_shell": "465",
	"turtle_shell_piece": "468",
	"turtle_helmet": "469",
	"phantom_membrane": "470",
	"spruce_sign": "472",
	"birch_sign": "473",
	"jungle_sign": "474",
	"acacia_sign": "475",
	"darkoak_sign": "476",
	"sweet_berries": "477",
	"camera": "498",
	"compound": "499",
	"music_disc_13": "500",
	"music_disc_cat": "501",
	"music_disc_blocks": "502",
	"music_disc_chirp": "503",
	"music_disc_far": "504",
	"music_disc_mall": "505",
	"music_disc_mellohi": "506",
	"music_disc_stal": "507",
	"music_disc_strad": "508",
	"music_disc_ward": "509",
	"music_disc_11": "510",
	"music_disc_wait": "511",
	"shield": "513",
	"smooth_quartz_stairs": "-185",
	"red_nether_brick_stairs": "-184",
	"smooth_stone": "-183",
	"spruce_wall_sign": "-182",
	"spruce_standing_sign": "-181",
	"stone_stairs": "-180",
	"mossy_cobblestone_stairs": "-179",
	"end_brick_stairs": "-178",
	"smooth_sandstone_stairs": "-177",
	"smooth_red_sandstone_stairs": "-176",
	"mossy_stone_brick_stairs": "-175",
	"polished_andesite_stairs": "-174",
	"polished_diorite_stairs": "-173",
	"polished_granite_stairs": "-172",
	"andesite_stairs": "-171",
	"diorite_stairs": "-170",
	"granite_stairs": "-169",
	"real_double_stone_slab4": "-168",
	"real_double_stone_slab3": "-167",
	"double_stone_slab4": "-166",
	"scaffolding": "-165",
	"bamboo_sapling": "-164",
	"bamboo": "-163",
	"double_stone_slab3": "-162",
	"barrier": "-161",
	"bubble_column": "-160",
	"turtle_egg": "-159",
	"air": "-158",
	"conduit": "-157",
	"sea_pickle": "-156",
	"carved_pumpkin": "-155",
	"spruce_pressure_plate": "-154",
	"jungle_pressure_plate": "-153",
	"dark_oak_pressure_plate": "-152",
	"birch_pressure_plate": "-151",
	"acacia_pressure_plate": "-150",
	"spruce_trapdoor": "-149",
	"jungle_trapdoor": "-148",
	"dark_oak_trapdoor": "-147",
	"birch_trapdoor": "-146",
	"acacia_trapdoor": "-145",
	"spruce_button": "-144",
	"jungle_button": "-143",
	"dark_oak_button": "-142",
	"birch_button": "-141",
	"acacia_button": "-140",
	"dried_kelp_block": "-139",
	"coral_fan_hang3": "-137",
	"coral_fan_hang2": "-136",
	"coral_fan_hang": "-135",
	"coral_fan_dead": "-134",
	"coral_fan": "-133",
	"coral_block": "-132",
	"coral": "-131",
	"seagrass": "-130",
	"blue_ice": "-11",
	"stripped_oak_log": "-10",
	"stripped_dark_oak_log": "-9",
	"stripped_acacia_log": "-8",
	"stripped_jungle_log": "-7",
	"stripped_birch_log": "-6",
	"stripped_spruce_log": "-5",
	"prismarine_bricks_stairs": "-4",
	"dark_prismarine_stairs": "-3",
	"prismarine_stairs": "-2",
	"coal": "263:0",
	"charcoal": "263:1",
	"golden_apple": "322:0",
	"enchanted_golden_apple": "322:1",
	"cod": "349:0",
	"pufferfish": "349:3",
	"cooked_cod": "350:0",
	"ink_sac": "351:0",
	"red_dye": "351:1",
	"green_dye": "351:2",
	"cocoa_beans": "351:3",
	"lapis_lazuli": "351:4",
	"purple_dye": "351:5",
	"cyan_dye": "351:6",
	"light_gray_dye": "351:7",
	"gray_dye": "351:8",
	"pink_dye": "351:9",
	"lime_dye": "351:10",
	"yellow_dye": "351:11",
	"light_blue_dye": "351:12",
	"magenta_dye": "351:13",
	"orange_dye": "351:14",
	"bone_meal": "351:15",
	"white_bed": "355:0",
	"orange_bed": "355:1",
	"magenta_bed": "355:2",
	"light_blue_bed": "355:3",
	"yellow_bed": "355:4",
	"lime_bed": "355:5",
	"pink_bed": "355:6",
	"gray_bed": "355:7",
	"light_gray_bed": "355:8",
	"cyan_bed": "355:9",
	"purple_bed": "355:10",
	"blue_bed": "355:11",
	"brown_bed": "355:12",
	"green_bed": "355:13",
	"red_bed": "355:14",
	"black_bed": "355:15",
	"flower_pot": "390:0",
	"skeleton_skull": "397:0",
	"wither_skeleton_skull": "397:1",
	"zombie_head": "397:2",
	"player_head": "397:3",
	"creeper_head": "397:4",
	"dragon_head": "397:5",
	"black_banner": "446:0",
	"red_banner": "446:1",
	"green_banner": "446:2",
	"brown_banner": "446:3",
	"blue_banner": "446:4",
	"purple_banner": "446:5",
	"cyan_banner": "446:6",
	"light_gray_banner": "446:7",
	"gray_banner": "446:8",
	"pink_banner": "446:9",
	"lime_banner": "446:10",
	"yellow_banner": "446:11",
	"light_blue_banner": "446:12",
	"magenta_banner": "446:13",
	"orange_banner": "446:14",
	"white_banner": "446:15"
}
